#
# There is insufficient memory for the Java Runtime Environment to continue.
# Native memory allocation (malloc) failed to allocate 962096 bytes for Chunk::new
# Possible reasons:
#   The system is out of physical RAM or swap space
#   In 32 bit mode, the process size limit was hit
# Possible solutions:
#   Reduce memory load on the system
#   Increase physical memory or swap space
#   Check if swap backing store is full
#   Use 64 bit Java on a 64 bit OS
#   Decrease Java heap size (-Xmx/-Xms)
#   Decrease number of Java threads
#   Decrease Java thread stack sizes (-Xss)
#   Set larger code cache with -XX:ReservedCodeCacheSize=
# This output file may be truncated or incomplete.
#
#  Out of Memory Error (allocation.cpp:390), pid=11052, tid=8800
#
# JRE version: Java(TM) SE Runtime Environment (8.0_45-b15) (build 1.8.0_45-b15)
# Java VM: Java HotSpot(TM) 64-Bit Server VM (25.45-b02 mixed mode windows-amd64 compressed oops)
# Failed to write core dump. Minidumps are not enabled by default on client versions of Windows
#

---------------  T H R E A D  ---------------

Current thread (0x0000000018a63000):  JavaThread "C2 CompilerThread1" daemon [_thread_in_native, id=8800, stack(0x0000000018f60000,0x0000000019060000)]

Stack: [0x0000000018f60000,0x0000000019060000]
Native frames: (J=compiled Java code, j=interpreted, Vv=VM code, C=native code)
V  [jvm.dll+0x32b57a]
V  [jvm.dll+0x279873]
V  [jvm.dll+0x27a509]
V  [jvm.dll+0x271825]
V  [jvm.dll+0xcb9e2]
V  [jvm.dll+0xcbeac]
V  [jvm.dll+0x4929e7]
V  [jvm.dll+0x45f8ca]
V  [jvm.dll+0x46a73b]
V  [jvm.dll+0x46cd52]
V  [jvm.dll+0x4500f2]
V  [jvm.dll+0xa4352]
V  [jvm.dll+0xa4c8f]
V  [jvm.dll+0x241984]
V  [jvm.dll+0x29853a]
C  [msvcr100.dll+0x21d9f]
C  [msvcr100.dll+0x21e3b]
C  [KERNEL32.DLL+0x18102]
C  [ntdll.dll+0x5c5b4]


Current CompileTask:
C2:  11968 3625       4       com.sun.javafx.css.SelectorPartitioning::match (700 bytes)


---------------  P R O C E S S  ---------------

Java Threads: ( => current thread )
  0x00000000196dd000 JavaThread "Prism Font Disposer" daemon [_thread_blocked, id=11116, stack(0x0000000022410000,0x0000000022510000)]
  0x000000001944b000 JavaThread "JavaFX-Launcher" [_thread_blocked, id=4500, stack(0x000000001e600000,0x000000001e700000)]
  0x000000001944a000 JavaThread "Thread-2" daemon [_thread_in_native, id=9556, stack(0x000000001e500000,0x000000001e600000)]
  0x0000000019415000 JavaThread "JavaFX Application Thread" [_thread_blocked, id=9220, stack(0x0000000019e70000,0x0000000019f70000)]
  0x0000000019412800 JavaThread "Thread-1" daemon [_thread_blocked, id=9224, stack(0x0000000019d70000,0x0000000019e70000)]
  0x00000000193a8000 JavaThread "QuantumRenderer-0" daemon [_thread_in_native, id=1448, stack(0x0000000019b60000,0x0000000019c60000)]
  0x0000000018ae4000 JavaThread "Service Thread" daemon [_thread_blocked, id=2036, stack(0x0000000019160000,0x0000000019260000)]
  0x0000000018a8b000 JavaThread "C1 CompilerThread2" daemon [_thread_blocked, id=3832, stack(0x0000000019060000,0x0000000019160000)]
=>0x0000000018a63000 JavaThread "C2 CompilerThread1" daemon [_thread_in_native, id=8800, stack(0x0000000018f60000,0x0000000019060000)]
  0x0000000018a60800 JavaThread "C2 CompilerThread0" daemon [_thread_in_native, id=284, stack(0x0000000018e60000,0x0000000018f60000)]
  0x0000000017559800 JavaThread "Attach Listener" daemon [_thread_blocked, id=9852, stack(0x0000000018960000,0x0000000018a60000)]
  0x000000001750e800 JavaThread "Signal Dispatcher" daemon [_thread_blocked, id=1332, stack(0x0000000018860000,0x0000000018960000)]
  0x0000000002996800 JavaThread "Finalizer" daemon [_thread_blocked, id=8728, stack(0x0000000018760000,0x0000000018860000)]
  0x00000000174c9800 JavaThread "Reference Handler" daemon [_thread_blocked, id=1580, stack(0x0000000018660000,0x0000000018760000)]
  0x000000000289e000 JavaThread "main" [_thread_blocked, id=3496, stack(0x0000000002760000,0x0000000002860000)]

Other Threads:
  0x00000000174c7000 VMThread [stack: 0x0000000018560000,0x0000000018660000] [id=9320]
  0x0000000018ae7800 WatcherThread [stack: 0x0000000019260000,0x0000000019360000] [id=6604]

VM state:not at safepoint (normal execution)

VM Mutex/Monitor currently owned by a thread: None

Heap:
 PSYoungGen      total 71680K, used 20099K [0x00000000d5d00000, 0x00000000dcb80000, 0x0000000100000000)
  eden space 66560K, 22% used [0x00000000d5d00000,0x00000000d6ba0f18,0x00000000d9e00000)
  from space 5120K, 100% used [0x00000000d9e00000,0x00000000da300000,0x00000000da300000)
  to   space 10752K, 0% used [0x00000000dc100000,0x00000000dc100000,0x00000000dcb80000)
 ParOldGen       total 59904K, used 13231K [0x0000000081600000, 0x0000000085080000, 0x00000000d5d00000)
  object space 59904K, 22% used [0x0000000081600000,0x00000000822ebee0,0x0000000085080000)
 Metaspace       used 21830K, capacity 23276K, committed 23424K, reserved 1069056K
  class space    used 3067K, capacity 3345K, committed 3456K, reserved 1048576K

Card table byte_map: [0x0000000011d60000,0x0000000012160000] byte_map_base: 0x0000000011955000

Marking Bits: (ParMarkBitMap*) 0x0000000073b24040
 Begin Bits: [0x0000000012810000, 0x00000000147b8000)
 End Bits:   [0x00000000147b8000, 0x0000000016760000)

Polling page: 0x0000000000ba0000

CodeCache: size=245760Kb used=11601Kb max_used=11601Kb free=234158Kb
 bounds [0x00000000029a0000, 0x0000000003500000, 0x00000000119a0000]
 total_blobs=4474 nmethods=3780 adapters=603
 compilation: disabled (not enough contiguous free space left)

Compilation events (10 events):
Event: 11.722 Thread 0x0000000018a8b000 nmethod 3792 0x00000000034ee8d0 code [0x00000000034eea40, 0x00000000034eecc8]
Event: 11.859 Thread 0x0000000018a8b000 3795       2       com.sun.javafx.geom.Path2D::<init> (409 bytes)
Event: 11.861 Thread 0x0000000018a8b000 nmethod 3795 0x00000000034eedd0 code [0x00000000034ef000, 0x00000000034efbf8]
Event: 11.863 Thread 0x0000000018a8b000 3796       2       com.sun.prism.BasicStroke::createStrokedShape (68 bytes)
Event: 11.863 Thread 0x0000000018a8b000 nmethod 3796 0x00000000034f0310 code [0x00000000034f0480, 0x00000000034f0838]
Event: 11.907 Thread 0x0000000018a8b000 3797       2       com.sun.prism.impl.BaseResourcePool$WeakLinkedList::getResource (11 bytes)
Event: 11.908 Thread 0x0000000018a8b000 nmethod 3797 0x00000000034f0990 code [0x00000000034f0ae0, 0x00000000034f0c70]
Event: 11.909 Thread 0x0000000018a8b000 3798       2       javafx.scene.text.Text::impl_updatePeer (9 bytes)
Event: 11.910 Thread 0x0000000018a8b000 nmethod 3798 0x00000000034f0d50 code [0x00000000034f0ec0, 0x00000000034f1088]
Event: 11.910 Thread 0x0000000018a8b000 3799       2       javafx.scene.text.Text::updatePGText (247 bytes)

GC Heap History (10 events):
Event: 6.047 GC heap before
{Heap before GC invocations=2 (full 0):
 PSYoungGen      total 38400K, used 37776K [0x00000000d5d00000, 0x00000000d8780000, 0x0000000100000000)
  eden space 33280K, 100% used [0x00000000d5d00000,0x00000000d7d80000,0x00000000d7d80000)
  from space 5120K, 87% used [0x00000000d7d80000,0x00000000d81e4160,0x00000000d8280000)
  to   space 5120K, 0% used [0x00000000d8280000,0x00000000d8280000,0x00000000d8780000)
 ParOldGen       total 87552K, used 80K [0x0000000081600000, 0x0000000086b80000, 0x00000000d5d00000)
  object space 87552K, 0% used [0x0000000081600000,0x0000000081614010,0x0000000086b80000)
 Metaspace       used 19493K, capacity 20684K, committed 20864K, reserved 1067008K
  class space    used 2883K, capacity 3144K, committed 3200K, reserved 1048576K
Event: 6.068 GC heap after
Heap after GC invocations=2 (full 0):
 PSYoungGen      total 38400K, used 5088K [0x00000000d5d00000, 0x00000000d8780000, 0x0000000100000000)
  eden space 33280K, 0% used [0x00000000d5d00000,0x00000000d5d00000,0x00000000d7d80000)
  from space 5120K, 99% used [0x00000000d8280000,0x00000000d8778170,0x00000000d8780000)
  to   space 5120K, 0% used [0x00000000d7d80000,0x00000000d7d80000,0x00000000d8280000)
 ParOldGen       total 87552K, used 5438K [0x0000000081600000, 0x0000000086b80000, 0x00000000d5d00000)
  object space 87552K, 6% used [0x0000000081600000,0x0000000081b4fa30,0x0000000086b80000)
 Metaspace       used 19493K, capacity 20684K, committed 20864K, reserved 1067008K
  class space    used 2883K, capacity 3144K, committed 3200K, reserved 1048576K
}
Event: 6.184 GC heap before
{Heap before GC invocations=3 (full 0):
 PSYoungGen      total 38400K, used 13843K [0x00000000d5d00000, 0x00000000d8780000, 0x0000000100000000)
  eden space 33280K, 26% used [0x00000000d5d00000,0x00000000d658cc40,0x00000000d7d80000)
  from space 5120K, 99% used [0x00000000d8280000,0x00000000d8778170,0x00000000d8780000)
  to   space 5120K, 0% used [0x00000000d7d80000,0x00000000d7d80000,0x00000000d8280000)
 ParOldGen       total 87552K, used 5438K [0x0000000081600000, 0x0000000086b80000, 0x00000000d5d00000)
  object space 87552K, 6% used [0x0000000081600000,0x0000000081b4fa30,0x0000000086b80000)
 Metaspace       used 19804K, capacity 21096K, committed 21248K, reserved 1067008K
  class space    used 2947K, capacity 3208K, committed 3328K, reserved 1048576K
Event: 6.198 GC heap after
Heap after GC invocations=3 (full 0):
 PSYoungGen      total 38400K, used 5088K [0x00000000d5d00000, 0x00000000da800000, 0x0000000100000000)
  eden space 33280K, 0% used [0x00000000d5d00000,0x00000000d5d00000,0x00000000d7d80000)
  from space 5120K, 99% used [0x00000000d7d80000,0x00000000d8278150,0x00000000d8280000)
  to   space 5120K, 0% used [0x00000000da300000,0x00000000da300000,0x00000000da800000)
 ParOldGen       total 87552K, used 5777K [0x0000000081600000, 0x0000000086b80000, 0x00000000d5d00000)
  object space 87552K, 6% used [0x0000000081600000,0x0000000081ba4680,0x0000000086b80000)
 Metaspace       used 19804K, capacity 21096K, committed 21248K, reserved 1067008K
  class space    used 2947K, capacity 3208K, committed 3328K, reserved 1048576K
}
Event: 6.198 GC heap before
{Heap before GC invocations=4 (full 1):
 PSYoungGen      total 38400K, used 5088K [0x00000000d5d00000, 0x00000000da800000, 0x0000000100000000)
  eden space 33280K, 0% used [0x00000000d5d00000,0x00000000d5d00000,0x00000000d7d80000)
  from space 5120K, 99% used [0x00000000d7d80000,0x00000000d8278150,0x00000000d8280000)
  to   space 5120K, 0% used [0x00000000da300000,0x00000000da300000,0x00000000da800000)
 ParOldGen       total 87552K, used 5777K [0x0000000081600000, 0x0000000086b80000, 0x00000000d5d00000)
  object space 87552K, 6% used [0x0000000081600000,0x0000000081ba4680,0x0000000086b80000)
 Metaspace       used 19804K, capacity 21096K, committed 21248K, reserved 1067008K
  class space    used 2947K, capacity 3208K, committed 3328K, reserved 1048576K
Event: 6.288 GC heap after
Heap after GC invocations=4 (full 1):
 PSYoungGen      total 38400K, used 0K [0x00000000d5d00000, 0x00000000da800000, 0x0000000100000000)
  eden space 33280K, 0% used [0x00000000d5d00000,0x00000000d5d00000,0x00000000d7d80000)
  from space 5120K, 0% used [0x00000000d7d80000,0x00000000d7d80000,0x00000000d8280000)
  to   space 5120K, 0% used [0x00000000da300000,0x00000000da300000,0x00000000da800000)
 ParOldGen       total 59904K, used 10406K [0x0000000081600000, 0x0000000085080000, 0x00000000d5d00000)
  object space 59904K, 17% used [0x0000000081600000,0x0000000082029ac8,0x0000000085080000)
 Metaspace       used 19804K, capacity 21096K, committed 21248K, reserved 1067008K
  class space    used 2947K, capacity 3208K, committed 3328K, reserved 1048576K
}
Event: 7.337 GC heap before
{Heap before GC invocations=5 (full 1):
 PSYoungGen      total 38400K, used 33280K [0x00000000d5d00000, 0x00000000da800000, 0x0000000100000000)
  eden space 33280K, 100% used [0x00000000d5d00000,0x00000000d7d80000,0x00000000d7d80000)
  from space 5120K, 0% used [0x00000000d7d80000,0x00000000d7d80000,0x00000000d8280000)
  to   space 5120K, 0% used [0x00000000da300000,0x00000000da300000,0x00000000da800000)
 ParOldGen       total 59904K, used 10406K [0x0000000081600000, 0x0000000085080000, 0x00000000d5d00000)
  object space 59904K, 17% used [0x0000000081600000,0x0000000082029ac8,0x0000000085080000)
 Metaspace       used 21427K, capacity 22932K, committed 23168K, reserved 1069056K
  class space    used 3055K, capacity 3339K, committed 3456K, reserved 1048576K
Event: 7.354 GC heap after
Heap after GC invocations=5 (full 1):
 PSYoungGen      total 61440K, used 5120K [0x00000000d5d00000, 0x00000000da800000, 0x0000000100000000)
  eden space 56320K, 0% used [0x00000000d5d00000,0x00000000d5d00000,0x00000000d9400000)
  from space 5120K, 100% used [0x00000000da300000,0x00000000da800000,0x00000000da800000)
  to   space 5120K, 0% used [0x00000000d9e00000,0x00000000d9e00000,0x00000000da300000)
 ParOldGen       total 59904K, used 12941K [0x0000000081600000, 0x0000000085080000, 0x00000000d5d00000)
  object space 59904K, 21% used [0x0000000081600000,0x00000000822a36c0,0x0000000085080000)
 Metaspace       used 21427K, capacity 22932K, committed 23168K, reserved 1069056K
  class space    used 3055K, capacity 3339K, committed 3456K, reserved 1048576K
}
Event: 11.818 GC heap before
{Heap before GC invocations=6 (full 1):
 PSYoungGen      total 61440K, used 61440K [0x00000000d5d00000, 0x00000000da800000, 0x0000000100000000)
  eden space 56320K, 100% used [0x00000000d5d00000,0x00000000d9400000,0x00000000d9400000)
  from space 5120K, 100% used [0x00000000da300000,0x00000000da800000,0x00000000da800000)
  to   space 5120K, 0% used [0x00000000d9e00000,0x00000000d9e00000,0x00000000da300000)
 ParOldGen       total 59904K, used 12941K [0x0000000081600000, 0x0000000085080000, 0x00000000d5d00000)
  object space 59904K, 21% used [0x0000000081600000,0x00000000822a36c0,0x0000000085080000)
 Metaspace       used 21810K, capacity 23276K, committed 23424K, reserved 1069056K
  class space    used 3067K, capacity 3345K, committed 3456K, reserved 1048576K
Event: 11.833 GC heap after
Heap after GC invocations=6 (full 1):
 PSYoungGen      total 71680K, used 5120K [0x00000000d5d00000, 0x00000000dcb80000, 0x0000000100000000)
  eden space 66560K, 0% used [0x00000000d5d00000,0x00000000d5d00000,0x00000000d9e00000)
  from space 5120K, 100% used [0x00000000d9e00000,0x00000000da300000,0x00000000da300000)
  to   space 10752K, 0% used [0x00000000dc100000,0x00000000dc100000,0x00000000dcb80000)
 ParOldGen       total 59904K, used 13231K [0x0000000081600000, 0x0000000085080000, 0x00000000d5d00000)
  object space 59904K, 22% used [0x0000000081600000,0x00000000822ebee0,0x0000000085080000)
 Metaspace       used 21810K, capacity 23276K, committed 23424K, reserved 1069056K
  class space    used 3067K, capacity 3345K, committed 3456K, reserved 1048576K
}

Deoptimization events (10 events):
Event: 7.192 Thread 0x00000000193a8000 Uncommon trap: reason=array_check action=maybe_recompile pc=0x0000000003287ae4 method=java.util.TimSort.binarySort([Ljava/lang/Object;IIILjava/util/Comparator;)V @ 193
Event: 7.249 Thread 0x00000000193a8000 Uncommon trap: reason=unstable_if action=reinterpret pc=0x0000000003294d40 method=com.sun.javafx.geom.Path2D.needRoom(ZI)V @ 104
Event: 7.254 Thread 0x00000000193a8000 Uncommon trap: reason=unstable_if action=reinterpret pc=0x000000000328b7b0 method=com.sun.javafx.geom.Path2D.needRoom(ZI)V @ 104
Event: 7.257 Thread 0x00000000193a8000 Uncommon trap: reason=unstable_if action=reinterpret pc=0x000000000328555c method=com.sun.javafx.geom.Order1.XforY(D)D @ 32
Event: 7.310 Thread 0x00000000193a8000 Uncommon trap: reason=unstable_if action=reinterpret pc=0x000000000319c784 method=com.sun.javafx.geom.RectBounds.isEmpty()Z @ 21
Event: 10.116 Thread 0x0000000019415000 Uncommon trap: reason=unstable_if action=reinterpret pc=0x00000000033f35f8 method=javafx.scene.Node.impl_intersectsBounds(Lcom/sun/javafx/geom/PickRay;)D @ 902
Event: 10.163 Thread 0x0000000019415000 Uncommon trap: reason=unstable_if action=reinterpret pc=0x00000000031e85cc method=com.sun.javafx.sg.prism.NGNode.markDirty()V @ 7
Event: 11.377 Thread 0x0000000019415000 Uncommon trap: reason=unstable_if action=reinterpret pc=0x000000000302bdb0 method=javafx.scene.CssStyleHelper.createStyleHelper(Ljavafx/scene/Node;)Ljavafx/scene/CssStyleHelper; @ 215
Event: 11.662 Thread 0x0000000019415000 Uncommon trap: reason=unstable_if action=reinterpret pc=0x00000000033ec040 method=com.sun.javafx.geom.RectBounds.deriveWithNewBounds(FFFFFF)Lcom/sun/javafx/geom/BaseBounds; @ 4
Event: 11.662 Thread 0x0000000019415000 Uncommon trap: reason=unstable_if action=reinterpret pc=0x00000000031ae284 method=com.sun.javafx.geom.RectBounds.isEmpty()Z @ 21

Internal exceptions (10 events):
Event: 0.426 Thread 0x000000000289e000 Exception <a 'java/security/PrivilegedActionException'> (0x00000000d60d8bd0) thrown at [C:\re\workspace\8-2-build-windows-amd64-cygwin\jdk8u45\3627\hotspot\src\share\vm\prims\jvm.cpp, line 1382]
Event: 0.427 Thread 0x000000000289e000 Exception <a 'java/security/PrivilegedActionException'> (0x00000000d60d8d88) thrown at [C:\re\workspace\8-2-build-windows-amd64-cygwin\jdk8u45\3627\hotspot\src\share\vm\prims\jvm.cpp, line 1382]
Event: 0.428 Thread 0x000000000289e000 Exception <a 'java/security/PrivilegedActionException'> (0x00000000d60dcb20) thrown at [C:\re\workspace\8-2-build-windows-amd64-cygwin\jdk8u45\3627\hotspot\src\share\vm\prims\jvm.cpp, line 1382]
Event: 0.428 Thread 0x000000000289e000 Exception <a 'java/security/PrivilegedActionException'> (0x00000000d60dccd8) thrown at [C:\re\workspace\8-2-build-windows-amd64-cygwin\jdk8u45\3627\hotspot\src\share\vm\prims\jvm.cpp, line 1382]
Event: 0.428 Thread 0x000000000289e000 Exception <a 'java/lang/NullPointerException'> (0x00000000d60dd258) thrown at [C:\re\workspace\8-2-build-windows-amd64-cygwin\jdk8u45\3627\hotspot\src\share\vm\interpreter\linkResolver.cpp, line 1178]
Event: 1.082 Thread 0x0000000019415000 Exception <a 'java/lang/NullPointerException'> (0x00000000d6a773e8) thrown at [C:\re\workspace\8-2-build-windows-amd64-cygwin\jdk8u45\3627\hotspot\src\share\vm\interpreter\linkResolver.cpp, line 1178]
Event: 1.082 Thread 0x0000000019415000 Exception <a 'java/lang/NullPointerException'> (0x00000000d6a773e8) thrown at [C:\re\workspace\8-2-build-windows-amd64-cygwin\jdk8u45\3627\hotspot\src\share\vm\prims\jvm.cpp, line 1386]
Event: 1.241 Thread 0x0000000019415000 Implicit null exception at 0x0000000002c0ad35 to 0x0000000002c0af05
Event: 1.285 Thread 0x0000000019415000 Implicit null exception at 0x0000000002bd7696 to 0x0000000002bd79c5
Event: 2.212 Thread 0x0000000019415000 Exception <a 'java/io/FileNotFoundException'> (0x00000000d7a97cb0) thrown at [C:\re\workspace\8-2-build-windows-amd64-cygwin\jdk8u45\3627\hotspot\src\share\vm\prims\jni.cpp, line 709]

Events (10 events):
Event: 11.857 Thread 0x00000000193a8000 DEOPT PACKING pc=0x00000000032d9dc6 sp=0x0000000019c5aea0
Event: 11.857 Thread 0x00000000193a8000 DEOPT UNPACKING pc=0x00000000029e787f sp=0x0000000019c5ad88 mode 0
Event: 11.864 Thread 0x00000000193a8000 DEOPT PACKING pc=0x00000000032da668 sp=0x0000000019c5ae20
Event: 11.864 Thread 0x00000000193a8000 DEOPT UNPACKING pc=0x00000000029e787f sp=0x0000000019c5ad08 mode 0
Event: 11.866 Thread 0x00000000193a8000 DEOPT PACKING pc=0x00000000032d9dc6 sp=0x0000000019c5acc0
Event: 11.866 Thread 0x00000000193a8000 DEOPT UNPACKING pc=0x00000000029e787f sp=0x0000000019c5aba8 mode 0
Event: 11.870 Thread 0x00000000193a8000 DEOPT PACKING pc=0x00000000032d9dc6 sp=0x0000000019c5acc0
Event: 11.870 Thread 0x00000000193a8000 DEOPT UNPACKING pc=0x00000000029e787f sp=0x0000000019c5aba8 mode 0
Event: 11.871 Thread 0x00000000193a8000 DEOPT PACKING pc=0x00000000032da651 sp=0x0000000019c5acc0
Event: 11.871 Thread 0x00000000193a8000 DEOPT UNPACKING pc=0x00000000029e787f sp=0x0000000019c5aba0 mode 0


Dynamic libraries:
0x00007ff687590000 - 0x00007ff6875c7000 	C:\Program Files\Java\jdk1.8.0_45\bin\java.exe
0x00007ffbbdd60000 - 0x00007ffbbdf21000 	C:\WINDOWS\SYSTEM32\ntdll.dll
0x00007ffbbd680000 - 0x00007ffbbd72d000 	C:\WINDOWS\system32\KERNEL32.DLL
0x00007ffbba5e0000 - 0x00007ffbba7c8000 	C:\WINDOWS\system32\KERNELBASE.dll
0x00007ffbbb360000 - 0x00007ffbbb407000 	C:\WINDOWS\system32\ADVAPI32.dll
0x00007ffbbdcc0000 - 0x00007ffbbdd5d000 	C:\WINDOWS\system32\msvcrt.dll
0x00007ffbbd830000 - 0x00007ffbbd88b000 	C:\WINDOWS\system32\sechost.dll
0x00007ffbbda30000 - 0x00007ffbbdb4c000 	C:\WINDOWS\system32\RPCRT4.dll
0x00007ffbbd8d0000 - 0x00007ffbbda26000 	C:\WINDOWS\system32\USER32.dll
0x00007ffbbba30000 - 0x00007ffbbbbb6000 	C:\WINDOWS\system32\GDI32.dll
0x00007ffba4890000 - 0x00007ffba4b04000 	C:\WINDOWS\WinSxS\amd64_microsoft.windows.common-controls_6595b64144ccf1df_6.0.10586.672_none_a2d6b3cea53ff843\COMCTL32.dll
0x00007ffbbbc70000 - 0x00007ffbbbeed000 	C:\WINDOWS\system32\combase.dll
0x00007ffbba8b0000 - 0x00007ffbba91a000 	C:\WINDOWS\system32\bcryptPrimitives.dll
0x00007ffbbd890000 - 0x00007ffbbd8cb000 	C:\WINDOWS\system32\IMM32.DLL
0x0000000073240000 - 0x0000000073312000 	C:\Program Files\Java\jdk1.8.0_45\jre\bin\msvcr100.dll
0x0000000073320000 - 0x0000000073ba3000 	C:\Program Files\Java\jdk1.8.0_45\jre\bin\server\jvm.dll
0x00007ffbbb410000 - 0x00007ffbbb418000 	C:\WINDOWS\system32\PSAPI.DLL
0x00007ffbaaba0000 - 0x00007ffbaabaa000 	C:\WINDOWS\SYSTEM32\VERSION.dll
0x00007ffbab450000 - 0x00007ffbab459000 	C:\WINDOWS\SYSTEM32\WSOCK32.dll
0x00007ffbbd7c0000 - 0x00007ffbbd82b000 	C:\WINDOWS\system32\WS2_32.dll
0x00007ffbb85b0000 - 0x00007ffbb85d3000 	C:\WINDOWS\SYSTEM32\WINMM.dll
0x0000000000bd0000 - 0x0000000000bfc000 	C:\WINDOWS\SYSTEM32\WINMMBASE.dll
0x00007ffbba4e0000 - 0x00007ffbba523000 	C:\WINDOWS\system32\cfgmgr32.dll
0x00000000731f0000 - 0x00000000731ff000 	C:\Program Files\Java\jdk1.8.0_45\jre\bin\verify.dll
0x00000000731c0000 - 0x00000000731e9000 	C:\Program Files\Java\jdk1.8.0_45\jre\bin\java.dll
0x00000000731a0000 - 0x00000000731b6000 	C:\Program Files\Java\jdk1.8.0_45\jre\bin\zip.dll
0x00007ffbbbef0000 - 0x00007ffbbd44c000 	C:\WINDOWS\system32\SHELL32.dll
0x00007ffbbaaf0000 - 0x00007ffbbb135000 	C:\WINDOWS\system32\windows.storage.dll
0x00007ffbbdb50000 - 0x00007ffbbdba2000 	C:\WINDOWS\system32\shlwapi.dll
0x00007ffbba3e0000 - 0x00007ffbba3ef000 	C:\WINDOWS\system32\kernel.appcore.dll
0x00007ffbba7f0000 - 0x00007ffbba8a5000 	C:\WINDOWS\system32\shcore.dll
0x00007ffbba390000 - 0x00007ffbba3db000 	C:\WINDOWS\system32\powrprof.dll
0x00007ffbba370000 - 0x00007ffbba384000 	C:\WINDOWS\system32\profapi.dll
0x0000000072e70000 - 0x0000000072e9c000 	C:\Program Files\Java\jdk1.8.0_45\jre\bin\prism_d3d.dll
0x00007ffb8f890000 - 0x00007ffb8faa0000 	C:\WINDOWS\system32\d3d9.dll
0x00007ffbb82f0000 - 0x00007ffbb8312000 	C:\WINDOWS\SYSTEM32\dwmapi.dll
0x00007ffbb8ce0000 - 0x00007ffbb8d76000 	C:\WINDOWS\system32\uxtheme.dll
0x00007ffb7fc20000 - 0x00007ffb8215d000 	C:\WINDOWS\SYSTEM32\igdumdim64.dll
0x00007ffbbd450000 - 0x00007ffbbd516000 	C:\WINDOWS\system32\OLEAUT32.dll
0x00007ffbbb4b0000 - 0x00007ffbbb5f3000 	C:\WINDOWS\system32\ole32.dll
0x00007ffbbb600000 - 0x00007ffbbba29000 	C:\WINDOWS\system32\SETUPAPI.dll
0x0000000072d50000 - 0x0000000072d91000 	C:\Program Files\Java\jdk1.8.0_45\jre\bin\glass.dll
0x00007ffbbdbb0000 - 0x00007ffbbdcbb000 	C:\WINDOWS\system32\COMDLG32.dll
0x00007ffbba3f0000 - 0x00007ffbba476000 	C:\WINDOWS\system32\FirewallAPI.dll
0x00007ffbba7d0000 - 0x00007ffbba7e7000 	C:\WINDOWS\system32\NETAPI32.dll
0x00007ffbad3c0000 - 0x00007ffbad3cc000 	C:\WINDOWS\SYSTEM32\DAVHLPR.DLL
0x00007ffbb90e0000 - 0x00007ffbb9112000 	C:\WINDOWS\SYSTEM32\fwbase.dll
0x00007ffbbd520000 - 0x00007ffbbd67a000 	C:\WINDOWS\system32\MSCTF.dll
0x00007ffbb5890000 - 0x00007ffbb62d0000 	C:\WINDOWS\SYSTEM32\igdusc64.dll
0x0000000072e50000 - 0x0000000072e65000 	C:\Program Files\Java\jdk1.8.0_45\jre\bin\javafx_font.dll
0x00007ffbae100000 - 0x00007ffbae35f000 	C:\WINDOWS\SYSTEM32\dwrite.dll
0x00007ffbbbbc0000 - 0x00007ffbbbc67000 	C:\WINDOWS\system32\clbcatq.dll
0x00007ffbb7d80000 - 0x00007ffbb7f31000 	C:\WINDOWS\SYSTEM32\WindowsCodecs.dll
0x00007ffb9c4b0000 - 0x00007ffb9c4fa000 	C:\WINDOWS\system32\dataexchange.dll
0x00007ffbb8040000 - 0x00007ffbb82e8000 	C:\WINDOWS\system32\d3d11.dll
0x00007ffbb8950000 - 0x00007ffbb8a33000 	C:\WINDOWS\system32\dcomp.dll
0x00007ffbb7f90000 - 0x00007ffbb8032000 	C:\WINDOWS\system32\dxgi.dll
0x00007ffbb8e80000 - 0x00007ffbb8f80000 	C:\WINDOWS\system32\twinapi.appcore.dll
0x00007ffbba290000 - 0x00007ffbba2b9000 	C:\WINDOWS\system32\bcrypt.dll
0x00007ffbb16c0000 - 0x00007ffbb16f4000 	C:\Program Files\Common Files\Microsoft Shared\Ink\rtscom.dll
0x0000000072d30000 - 0x0000000072d41000 	C:\Program Files\Java\jdk1.8.0_45\jre\bin\prism_common.dll
0x00007ffbb8340000 - 0x00007ffbb84c6000 	C:\WINDOWS\system32\propsys.dll
0x00007ffbb1a40000 - 0x00007ffbb1ae3000 	C:\Program Files\Common Files\microsoft shared\ink\tiptsf.dll
0x00007ffbaabc0000 - 0x00007ffbaac10000 	C:\WINDOWS\SYSTEM32\edputil.dll
0x00007ffbacb40000 - 0x00007ffbacb95000 	C:\WINDOWS\SYSTEM32\policymanager.dll
0x00007ffbae6e0000 - 0x00007ffbae772000 	C:\WINDOWS\SYSTEM32\msvcp110_win.dll
0x00007ffb9bd70000 - 0x00007ffb9c210000 	C:\WINDOWS\system32\explorerframe.dll
0x00007ffb92680000 - 0x00007ffb92833000 	C:\WINDOWS\system32\DUI70.dll
0x00007ffb96860000 - 0x00007ffb968f8000 	C:\WINDOWS\system32\DUser.dll
0x00007ffb9ac80000 - 0x00007ffb9accd000 	C:\Windows\System32\thumbcache.dll
0x00007ffbadf70000 - 0x00007ffbae0f5000 	C:\Windows\System32\Windows.Globalization.dll
0x00007ffbb0740000 - 0x00007ffbb07a7000 	C:\Windows\System32\Bcp47Langs.dll
0x00007ffba4490000 - 0x00007ffba44c0000 	C:\WINDOWS\SYSTEM32\globinputhost.dll
0x00007ffb96790000 - 0x00007ffb9683c000 	C:\WINDOWS\System32\StructuredQuery.dll
0x00007ffba3db0000 - 0x00007ffba4243000 	C:\Windows\System32\ActXPrxy.dll
0x00007ffb97110000 - 0x00007ffb97120000 	C:\WINDOWS\SYSTEM32\atlthunk.dll
0x00007ffb966c0000 - 0x00007ffb9678c000 	C:\WINDOWS\system32\Windows.Storage.Search.dll
0x00007ffb914f0000 - 0x00007ffb914f9000 	C:\WINDOWS\system32\IconCodecService.dll
0x00007ffba2bb0000 - 0x00007ffba2bcb000 	C:\WINDOWS\SYSTEM32\MPR.dll
0x00007ffbad570000 - 0x00007ffbad57b000 	C:\WINDOWS\System32\drprov.dll
0x00007ffbba230000 - 0x00007ffbba286000 	C:\WINDOWS\System32\WINSTA.dll
0x00007ffbac470000 - 0x00007ffbac486000 	C:\WINDOWS\System32\ntlanman.dll
0x00007ffba6590000 - 0x00007ffba65b0000 	C:\WINDOWS\System32\davclnt.dll
0x00007ffbb2e00000 - 0x00007ffbb2e16000 	C:\WINDOWS\System32\wkscli.dll
0x00007ffbaac90000 - 0x00007ffbaaca2000 	C:\WINDOWS\SYSTEM32\cscapi.dll
0x00007ffbb9770000 - 0x00007ffbb977c000 	C:\WINDOWS\System32\netutils.dll
0x00007ffb9c960000 - 0x00007ffb9ca11000 	C:\Windows\System32\twinapi.dll
0x00007ffbb8b60000 - 0x00007ffbb8bd9000 	C:\WINDOWS\SYSTEM32\apphelp.dll
0x00007ffb921f0000 - 0x00007ffb9226f000 	C:\Windows\System32\dlnashext.dll
0x00007ffbace10000 - 0x00007ffbace84000 	C:\Windows\System32\PlayToDevice.dll
0x00007ffb9ede0000 - 0x00007ffb9edff000 	C:\Windows\System32\DevDispItemProvider.dll
0x00007ffbbb140000 - 0x00007ffbbb1af000 	C:\WINDOWS\system32\coml2.dll
0x00007ffb9ac70000 - 0x00007ffb9ac7d000 	C:\WINDOWS\SYSTEM32\LINKINFO.dll
0x00007ffbb2d60000 - 0x00007ffbb2dd0000 	C:\WINDOWS\System32\MMDevApi.dll
0x00007ffbb8e30000 - 0x00007ffbb8e57000 	C:\WINDOWS\System32\DEVOBJ.dll
0x00007ffbb7a50000 - 0x00007ffbb7af1000 	C:\Windows\System32\PortableDeviceApi.dll
0x00007ffbba480000 - 0x00007ffbba4d5000 	C:\WINDOWS\system32\WINTRUST.dll
0x00007ffbba360000 - 0x00007ffbba370000 	C:\WINDOWS\system32\MSASN1.dll
0x00007ffbba920000 - 0x00007ffbbaae8000 	C:\WINDOWS\system32\CRYPT32.dll
0x00007ffb9a0f0000 - 0x00007ffb9a282000 	C:\Users\zhaotingyi\AppData\Local\Microsoft\OneDrive\17.3.6301.0127\amd64\FileSyncShell64.dll
0x00007ffb9a040000 - 0x00007ffb9a0e6000 	C:\Users\zhaotingyi\AppData\Local\Microsoft\OneDrive\17.3.6301.0127\amd64\MSVCP120.dll
0x00007ffb99f50000 - 0x00007ffb9a03f000 	C:\Users\zhaotingyi\AppData\Local\Microsoft\OneDrive\17.3.6301.0127\amd64\MSVCR120.dll
0x00007ffbabb30000 - 0x00007ffbabe27000 	C:\WINDOWS\SYSTEM32\WININET.dll
0x00007ffb99ee0000 - 0x00007ffb99f17000 	C:\Windows\System32\EhStorShell.dll
0x00007ffb9a290000 - 0x00007ffb9a3b7000 	C:\WINDOWS\system32\NetworkExplorer.dll
0x00007ffbb1e80000 - 0x00007ffbb1ea6000 	C:\Windows\System32\EhStorAPI.dll
0x00007ffbb84d0000 - 0x00007ffbb84e3000 	C:\Windows\System32\WTSAPI32.dll
0x00007ffb99f20000 - 0x00007ffb99f49000 	C:\Program Files (x86)\Baofeng\StormPlayer\BFDesktopShell64.dll
0x00007ffb99e10000 - 0x00007ffb99ed6000 	C:\WINDOWS\System32\cscui.dll
0x00007ffb99700000 - 0x00007ffb99723000 	C:\WINDOWS\system32\mssprxy.dll
0x00007ffb9ab80000 - 0x00007ffb9ac5b000 	C:\WINDOWS\SYSTEM32\ntshrui.dll
0x00007ffbb9fe0000 - 0x00007ffbba00d000 	C:\WINDOWS\SYSTEM32\SspiCli.dll
0x00007ffbaa170000 - 0x00007ffbaa196000 	C:\WINDOWS\SYSTEM32\srvcli.dll
0x00007ffb91480000 - 0x00007ffb914f0000 	C:\Users\zhaotingyi\AppData\Local\dict.cn\Dict4\AppTemp\CaptureText\2.0.20140803140557\7304\CaptureText_x64.dll
0x00007ffba1980000 - 0x00007ffba1b0c000 	C:\WINDOWS\SYSTEM32\dbghelp.dll

VM Arguments:
jvm_args: -Dfile.encoding=UTF-8 
java_command: tam.TAManagerApp
java_class_path (initial): C:\Users\zhaotingyi\Desktop\HW1_Solution\PropertiesManager\build\classes;C:\Users\zhaotingyi\Desktop\HW1_Solution\DesktopJavaFramework\build\classes;C:\Users\zhaotingyi\Desktop\HW1_Solution\javax.json-1.0.4.jar;C:\Users\zhaotingyi\Documents\CSE219\TAManager\jTPS\build\classes;C:\Users\zhaotingyi\Desktop\HW1_Solution\TAManager_Solution\build\classes
Launcher Type: SUN_STANDARD

Environment Variables:
JAVA_HOME=C:\Program Files (x86)\Java\jdk1.8.0_40
CLASSPATH=.;C:\Program Files (x86)\Java\jdk1.8.0_40\lib
PATH=C:\Program Files\Common Files\Siemens\Automation\Simatic OAM\bin;\C:\Program Files (x86)\Java\jdk1.8.0_40\bin;C:\ProgramData\Oracle\Java\javapath;C:\Program Files (x86)\NVIDIA Corporation\PhysX\Common;C:\Windows\system32;C:\Windows;C:\Windows\System32\Wbem;C:\Windows\System32\WindowsPowerShell\v1.0\;C:\Program Files (x86)\Java\jdk1.8.0_05\bin;C:\Program Files (x86)\Java\jdk1.8.0_05\jre\bin;C:\Program Files (x86)\PharosSystems\Core;C:\WINDOWS\system32;C:\WINDOWS;C:\WINDOWS\System32\Wbem;C:\WINDOWS\System32\WindowsPowerShell\v1.0\;C:\Program Files (x86)\Skype\Phone\;C:\Program Files\nodejs\;C:\CTEX\UserData\miktex\bin;C:\CTEX\MiKTeX\miktex\bin;C:\CTEX\CTeX\ctex\bin;C:\CTEX\CTeX\cct\bin;C:\CTEX\CTeX\ty\bin;C:\CTEX\Ghostscript\gs9.05\bin;C:\CTEX\GSview\gsview;C:\CTEX\WinEdt;\C:\Program Files (x86)\Java\jdk1.8.0_40\bin;C:\ProgramData\Oracle\Java\javapath;C:\Program Files (x86)\NVIDIA Corporation\PhysX\Common;C:\Windows\system32;C:\Windows;C:\Windows\System32\Wbem;C:\Windows\System32\WindowsPowerShell\v1.0\;C:\Program Files (x86)\Java\jdk1.8.0_05\bin;C:\Program Files (x86)\Java\jdk1.8.0_05\jre\bin;C:\Program Files (x86)\PharosSystems\Core;C:\WINDOWS\system32;C:\WINDOWS;C:\WINDOWS\System32\Wbem;C:\WINDOWS\System32\WindowsPowerShell\v1.0\;C:\Program Files (x86)\IDM Computer Solutions\UltraEdit\;C:\Users\zhaotingyi\AppData\Roaming\npm
USERNAME=zhaotingyi
OS=Windows_NT
PROCESSOR_IDENTIFIER=Intel64 Family 6 Model 69 Stepping 1, GenuineIntel



---------------  S Y S T E M  ---------------

OS: Windows 10.0 , 64 bit Build 10586 (10.0.10586.589)

CPU:total 4 (2 cores per cpu, 2 threads per core) family 6 model 69 stepping 1, cmov, cx8, fxsr, mmx, sse, sse2, sse3, ssse3, sse4.1, sse4.2, popcnt, avx, avx2, aes, clmul, erms, lzcnt, ht, tsc, tscinvbit, bmi1, bmi2

Memory: 4k page, physical 8295104k(141268k free), swap 16683712k(4120k free)

vm_info: Java HotSpot(TM) 64-Bit Server VM (25.45-b02) for windows-amd64 JRE (1.8.0_45-b15), built on Apr 30 2015 12:40:44 by "java_re" with MS VC++ 10.0 (VS2010)

time: Mon Mar 13 14:00:19 2017
elapsed time: 11 seconds (0d 0h 0m 11s)

